tek0404.csv

Model,MDO3054
Firmware Version,1.26

Waveform Type,ANALOG,
Point Format,Y,
Horizontal Units,s,
Horizontal Scale,4e-05,
Horizontal Delay,0,
Sample Interval,4e-08,
Record Length,10000,
Gating,0.0% to 100.0%,
Probe Attenuation,10000,2
Vertical Units,V,A
Vertical Offset,0,0
Vertical Scale,2000,0.2
Vertical Position,-0.06,0.04
,,
,,
,,
Label,,
TIME,CH1,CH2
-2.0000e-04,-440,0.072
-1.9996e-04,-440,0.08
-1.9992e-04,-520,0.064
-1.9988e-04,-520,0.064
-1.9984e-04,-440,0.072
-1.9980e-04,-520,0.072
-1.9976e-04,-520,0.064
-1.9972e-04,-600,0.072
-1.9968e-04,-600,0.072
-1.9964e-04,-600,0.072
-1.9960e-04,-600,0.072
-1.9956e-04,-600,0.072
-1.9952e-04,-600,0.072
-1.9948e-04,-680,0.08
-1.9944e-04,-680,0.072
-1.9940e-04,-760,0.08
-1.9936e-04,-840,0.072
-1.9932e-04,-680,0.072
-1.9928e-04,-840,0.08
-1.9924e-04,-760,0.072
-1.9920e-04,-760,0.072
-1.9916e-04,-840,0.072
-1.9912e-04,-760,0.072
-1.9908e-04,-760,0.072
-1.9904e-04,-760,0.072
-1.9900e-04,-920,0.08
-1.9896e-04,-840,0.08
-1.9892e-04,-920,0.072
-1.9888e-04,-1000,0.072
-1.9884e-04,-840,0.072
-1.9880e-04,-920,0.08
-1.9876e-04,-920,0.072
-1.9872e-04,-1000,0.08
-1.9868e-04,-1080,0.072
-1.9864e-04,-920,0.088
-1.9860e-04,-1000,0.08
-1.9856e-04,-1000,0.088
-1.9852e-04,-1000,0.08
-1.9848e-04,-1000,0.088
-1.9844e-04,-1160,0.088
-1.9840e-04,-1080,0.08
-1.9836e-04,-1080,0.08
-1.9832e-04,-1160,0.088
-1.9828e-04,-1240,0.08
-1.9824e-04,-1000,0.08
-1.9820e-04,-1160,0.088
-1.9816e-04,-1240,0.08
-1.9812e-04,-1080,0.088
-1.9808e-04,-1160,0.088
-1.9804e-04,-1240,0.088
-1.9800e-04,-1320,0.08
-1.9796e-04,-1240,0.088
-1.9792e-04,-1240,0.096
-1.9788e-04,-1320,0.096
-1.9784e-04,-1320,0.088
-1.9780e-04,-1320,0.08
-1.9776e-04,-1400,0.088
-1.9772e-04,-1400,0.088
-1.9768e-04,-1320,0.088
-1.9764e-04,-1400,0.088
-1.9760e-04,-1400,0.088
-1.9756e-04,-1400,0.096
-1.9752e-04,-1560,0.096
-1.9748e-04,-1480,0.088
-1.9744e-04,-1400,0.096
-1.9740e-04,-1480,0.08
-1.9736e-04,-1560,0.08
-1.9732e-04,-1560,0.096
-1.9728e-04,-1640,0.088
-1.9724e-04,-1640,0.096
-1.9720e-04,-1560,0.096
-1.9716e-04,-1640,0.096
-1.9712e-04,-1640,0.096
-1.9708e-04,-1640,0.096
-1.9704e-04,-1560,0.088
-1.9700e-04,-1640,0.104
-1.9696e-04,-1640,0.104
-1.9692e-04,-1720,0.104
-1.9688e-04,-1720,0.096
-1.9684e-04,-1800,0.096
-1.9680e-04,-1800,0.096
-1.9676e-04,-1800,0.104
-1.9672e-04,-1800,0.096
-1.9668e-04,-1720,0.096
-1.9664e-04,-1720,0.104
-1.9660e-04,-1880,0.104
-1.9656e-04,-1880,0.096
-1.9652e-04,-1880,0.096
-1.9648e-04,-1880,0.104
-1.9644e-04,-1960,0.096
-1.9640e-04,-1880,0.104
-1.9636e-04,-1960,0.096
-1.9632e-04,-1960,0.104
-1.9628e-04,-2040,0.112
-1.9624e-04,-1960,0.096
-1.9620e-04,-2040,0.096
-1.9616e-04,-2120,0.096
-1.9612e-04,-2040,0.104
-1.9608e-04,-2120,0.112
-1.9604e-04,-2120,0.096
-1.9600e-04,-2120,0.104
-1.9596e-04,-2200,0.112
-1.9592e-04,-2120,0.104
-1.9588e-04,-2200,0.096
-1.9584e-04,-2200,0.104
-1.9580e-04,-2200,0.104
-1.9576e-04,-2200,0.104
-1.9572e-04,-2280,0.104
-1.9568e-04,-2280,0.112
-1.9564e-04,-2280,0.104
-1.9560e-04,-2360,0.104
-1.9556e-04,-2360,0.104
-1.9552e-04,-2360,0.112
-1.9548e-04,-2440,0.104
-1.9544e-04,-2280,0.112
-1.9540e-04,-2360,0.104
-1.9536e-04,-2440,0.112
-1.9532e-04,-2440,0.104
-1.9528e-04,-2520,0.104
-1.9524e-04,-2440,0.112
-1.9520e-04,-2440,0.112
-1.9516e-04,-2440,0.112
-1.9512e-04,-2440,0.112
-1.9508e-04,-2440,0.112
-1.9504e-04,-2520,0.112
-1.9500e-04,-2600,0.104
-1.9496e-04,-2520,0.112
-1.9492e-04,-2600,0.112
-1.9488e-04,-2680,0.112
-1.9484e-04,-2600,0.112
-1.9480e-04,-2680,0.112
-1.9476e-04,-2680,0.12
-1.9472e-04,-2760,0.112
-1.9468e-04,-2680,0.112
-1.9464e-04,-2680,0.12
-1.9460e-04,-2680,0.12
-1.9456e-04,-2680,0.112
-1.9452e-04,-2760,0.112
-1.9448e-04,-2840,0.112
-1.9444e-04,-2840,0.12
-1.9440e-04,-2920,0.112
-1.9436e-04,-2840,0.112
-1.9432e-04,-2840,0.112
-1.9428e-04,-2840,0.12
-1.9424e-04,-2840,0.112
-1.9420e-04,-2920,0.12
-1.9416e-04,-2920,0.112
-1.9412e-04,-3000,0.12
-1.9408e-04,-3000,0.112
-1.9404e-04,-3080,0.12
-1.9400e-04,-2920,0.12
-1.9396e-04,-3000,0.112
-1.9392e-04,-3080,0.12
-1.9388e-04,-3000,0.128
-1.9384e-04,-3000,0.12
-1.9380e-04,-3080,0.12
-1.9376e-04,-3080,0.12
-1.9372e-04,-3080,0.128
-1.9368e-04,-3160,0.112
-1.9364e-04,-3160,0.12
-1.9360e-04,-3160,0.128
-1.9356e-04,-3160,0.128
-1.9352e-04,-3160,0.128
-1.9348e-04,-3320,0.128
-1.9344e-04,-3320,0.12
-1.9340e-04,-3240,0.128
-1.9336e-04,-3240,0.12
-1.9332e-04,-3240,0.128
-1.9328e-04,-3320,0.12
-1.9324e-04,-3320,0.12
-1.9320e-04,-3400,0.12
-1.9316e-04,-3400,0.128
-1.9312e-04,-3400,0.128
-1.9308e-04,-3400,0.128
-1.9304e-04,-3480,0.128
-1.9300e-04,-3480,0.12
-1.9296e-04,-3560,0.12
-1.9292e-04,-3560,0.12
-1.9288e-04,-3480,0.128
-1.9284e-04,-3480,0.136
-1.9280e-04,-3560,0.136
-1.9276e-04,-3640,0.136
-1.9272e-04,-3560,0.128
-1.9268e-04,-3640,0.136
-1.9264e-04,-3560,0.136
-1.9260e-04,-3560,0.144
-1.9256e-04,-3720,0.128
-1.9252e-04,-3640,0.136
-1.9248e-04,-3720,0.128
-1.9244e-04,-3720,0.136
-1.9240e-04,-3720,0.128
-1.9236e-04,-3800,0.136
-1.9232e-04,-3800,0.136
-1.9228e-04,-3800,0.128
-1.9224e-04,-3800,0.136
-1.9220e-04,-3800,0.136
-1.9216e-04,-3720,0.144
-1.9212e-04,-3800,0.136
-1.9208e-04,-3800,0.136
-1.9204e-04,-3880,0.144
-1.9200e-04,-3880,0.136
-1.9196e-04,-3800,0.144
-1.9192e-04,-3960,0.136
-1.9188e-04,-3880,0.136
-1.9184e-04,-3880,0.136
-1.9180e-04,-3960,0.136
-1.9176e-04,-3960,0.144
-1.9172e-04,-3960,0.144
-1.9168e-04,-3960,0.144
-1.9164e-04,-3960,0.144
-1.9160e-04,-4040,0.144
-1.9156e-04,-4040,0.136
-1.9152e-04,-4040,0.136
-1.9148e-04,-4120,0.136
-1.9144e-04,-4120,0.144
-1.9140e-04,-4040,0.152
-1.9136e-04,-4120,0.144
-1.9132e-04,-4120,0.144
-1.9128e-04,-4200,0.152
-1.9124e-04,-4200,0.152
-1.9120e-04,-4200,0.144
-1.9116e-04,-4280,0.144
-1.9112e-04,-4200,0.152
-1.9108e-04,-4280,0.144
-1.9104e-04,-4280,0.16
-1.9100e-04,-4360,0.144
-1.9096e-04,-4360,0.152
-1.9092e-04,-4360,0.152
-1.9088e-04,-4360,0.16
-1.9084e-04,-4360,0.152
-1.9080e-04,-4360,0.152
-1.9076e-04,-4360,0.16
-1.9072e-04,-4360,0.152
-1.9068e-04,-4440,0.16
-1.9064e-04,-4440,0.152
-1.9060e-04,-4520,0.152
-1.9056e-04,-4520,0.152
-1.9052e-04,-4520,0.16
-1.9048e-04,-4440,0.16
-1.9044e-04,-4520,0.16
-1.9040e-04,-4520,0.152
-1.9036e-04,-4600,0.16
-1.9032e-04,-4520,0.16
-1.9028e-04,-4520,0.16
-1.9024e-04,-4520,0.168
-1.9020e-04,-4600,0.16
-1.9016e-04,-4600,0.168
-1.9012e-04,-4600,0.168
-1.9008e-04,-4600,0.168
-1.9004e-04,-4680,0.176
-1.9000e-04,-4680,0.168
-1.8996e-04,-4680,0.168
-1.8992e-04,-4680,0.176
-1.8988e-04,-4680,0.16
-1.8984e-04,-4760,0.184
-1.8980e-04,-4680,0.184
-1.8976e-04,-4760,0.168
-1.8972e-04,-4760,0.184
-1.8968e-04,-4840,0.176
-1.8964e-04,-4840,0.192
-1.8960e-04,-4760,0.184
-1.8956e-04,-4840,0.192
-1.8952e-04,-4840,0.2
-1.8948e-04,-4760,0.192
-1.8944e-04,-4840,0.2
-1.8940e-04,-4840,0.2
-1.8936e-04,-4840,0.2
-1.8932e-04,-4680,0.208
-1.8928e-04,-4840,0.216
-1.8924e-04,-4840,0.216
-1.8920e-04,-4760,0.216
-1.8916e-04,-4840,0.224
-1.8912e-04,-4760,0.232
-1.8908e-04,-4760,0.232
-1.8904e-04,-4760,0.24
-1.8900e-04,-4840,0.24
-1.8896e-04,-4840,0.24
-1.8892e-04,-4920,0.256
-1.8888e-04,-4760,0.272
-1.8884e-04,-4840,0.256
-1.8880e-04,-4760,0.28
-1.8876e-04,-4840,0.272
-1.8872e-04,-4760,0.288
-1.8868e-04,-4760,0.296
-1.8864e-04,-4760,0.304
-1.8860e-04,-4840,0.304
-1.8856e-04,-4760,0.32
-1.8852e-04,-4760,0.328
-1.8848e-04,-4680,0.336
-1.8844e-04,-4680,0.336
-1.8840e-04,-4680,0.36
-1.8836e-04,-4600,0.368
-1.8832e-04,-4520,0.376
-1.8828e-04,-4520,0.384
-1.8824e-04,-4520,0.4
-1.8820e-04,-4440,0.416
-1.8816e-04,-4440,0.424
-1.8812e-04,-4520,0.432
-1.8808e-04,-4360,0.448
-1.8804e-04,-4280,0.456
-1.8800e-04,-4280,0.472
-1.8796e-04,-4200,0.488
-1.8792e-04,-4200,0.496
-1.8788e-04,-4120,0.52
-1.8784e-04,-4040,0.536
-1.8780e-04,-3960,0.568
-1.8776e-04,-3960,0.608
-1.8772e-04,-3880,0.664
-1.8768e-04,-3800,0.768
-1.8764e-04,-3640,0.968
-1.8760e-04,-3400,inf
-1.8756e-04,-3000,inf
-1.8752e-04,-1960,inf
-1.8748e-04,-920,inf
-1.8744e-04,-120,inf
-1.8740e-04,40,-0.592
-1.8736e-04,120,0.264
-1.8732e-04,40,0.272
-1.8728e-04,-40,0.264
-1.8724e-04,-40,-0.032
-1.8720e-04,-40,-0.056
-1.8716e-04,-40,0.256
-1.8712e-04,-120,0.12
-1.8708e-04,-120,0.056
-1.8704e-04,-200,0.128
-1.8700e-04,-200,0.12
-1.8696e-04,-200,0.184
-1.8692e-04,-360,0.152
-1.8688e-04,-360,0.12
-1.8684e-04,-360,0.152
-1.8680e-04,-440,0.096
-1.8676e-04,-440,0.112
-1.8672e-04,-440,0.12
-1.8668e-04,-520,0.168
-1.8664e-04,-440,0.152
-1.8660e-04,-440,0.08
-1.8656e-04,-520,0.208
-1.8652e-04,-520,0.248
-1.8648e-04,-520,0.16
-1.8644e-04,-520,0.128
-1.8640e-04,-600,0.224
-1.8636e-04,-680,0.256
-1.8632e-04,-520,0.168
-1.8628e-04,-600,0.12
-1.8624e-04,-600,0.216
-1.8620e-04,-680,0.224
-1.8616e-04,-680,0.176
-1.8612e-04,-600,0.184
-1.8608e-04,-680,0.232
-1.8604e-04,-760,0.24
-1.8600e-04,-760,0.208
-1.8596e-04,-680,0.208
-1.8592e-04,-680,0.224
-1.8588e-04,-760,0.216
-1.8584e-04,-680,0.192
-1.8580e-04,-760,0.184
-1.8576e-04,-760,0.208
-1.8572e-04,-760,0.216
-1.8568e-04,-920,0.192
-1.8564e-04,-920,0.208
-1.8560e-04,-840,0.224
-1.8556e-04,-840,0.224
-1.8552e-04,-920,0.2
-1.8548e-04,-840,0.208
-1.8544e-04,-920,0.216
-1.8540e-04,-920,0.216
-1.8536e-04,-920,0.192
-1.8532e-04,-1000,0.192
-1.8528e-04,-1000,0.208
-1.8524e-04,-1000,0.192
-1.8520e-04,-1000,0.184
-1.8516e-04,-1000,0.2
-1.8512e-04,-1000,0.224
-1.8508e-04,-1000,0.2
-1.8504e-04,-1000,0.216
-1.8500e-04,-1080,0.208
-1.8496e-04,-1080,0.216
-1.8492e-04,-1080,0.192
-1.8488e-04,-1160,0.208
-1.8484e-04,-1080,0.216
-1.8480e-04,-1160,0.216
-1.8476e-04,-1160,0.224
-1.8472e-04,-1160,0.216
-1.8468e-04,-1320,0.216
-1.8464e-04,-1240,0.224
-1.8460e-04,-1160,0.216
-1.8456e-04,-1240,0.208
-1.8452e-04,-1240,0.224
-1.8448e-04,-1240,0.208
-1.8444e-04,-1400,0.208
-1.8440e-04,-1400,0.208
-1.8436e-04,-1400,0.216
-1.8432e-04,-1320,0.216
-1.8428e-04,-1320,0.216
-1.8424e-04,-1400,0.216
-1.8420e-04,-1320,0.224
-1.8416e-04,-1400,0.224
-1.8412e-04,-1400,0.216
-1.8408e-04,-1400,0.216
-1.8404e-04,-1480,0.216
-1.8400e-04,-1480,0.216
-1.8396e-04,-1480,0.208
-1.8392e-04,-1560,0.208
-1.8388e-04,-1560,0.208
-1.8384e-04,-1560,0.224
-1.8380e-04,-1560,0.216
-1.8376e-04,-1640,0.208
-1.8372e-04,-1560,0.216
-1.8368e-04,-1720,0.224
-1.8364e-04,-1640,0.216
-1.8360e-04,-1720,0.208
-1.8356e-04,-1560,0.216
-1.8352e-04,-1560,0.216
-1.8348e-04,-1720,0.216
-1.8344e-04,-1800,0.224
-1.8340e-04,-1720,0.208
-1.8336e-04,-1720,0.224
-1.8332e-04,-1880,0.224
-1.8328e-04,-1800,0.232
-1.8324e-04,-1800,0.232
-1.8320e-04,-1800,0.232
-1.8316e-04,-1800,0.224
-1.8312e-04,-1800,0.224
-1.8308e-04,-1880,0.224
-1.8304e-04,-1880,0.232
-1.8300e-04,-1880,0.232
-1.8296e-04,-1960,0.224
-1.8292e-04,-1960,0.224
-1.8288e-04,-1960,0.224
-1.8284e-04,-1960,0.232
-1.8280e-04,-1960,0.232
-1.8276e-04,-2040,0.232
-1.8272e-04,-2040,0.224
-1.8268e-04,-2040,0.224
-1.8264e-04,-1960,0.232
-1.8260e-04,-2120,0.224
-1.8256e-04,-2040,0.224
-1.8252e-04,-2040,0.224
-1.8248e-04,-2040,0.232
-1.8244e-04,-2040,0.224
-1.8240e-04,-2120,0.224
-1.8236e-04,-2200,0.24
-1.8232e-04,-2200,0.232
-1.8228e-04,-2200,0.24
-1.8224e-04,-2200,0.24
-1.8220e-04,-2280,0.248
-1.8216e-04,-2200,0.248
-1.8212e-04,-2280,0.24
-1.8208e-04,-2280,0.24
-1.8204e-04,-2360,0.24
-1.8200e-04,-2280,0.24
-1.8196e-04,-2280,0.248
-1.8192e-04,-2360,0.24
-1.8188e-04,-2280,0.248
-1.8184e-04,-2360,0.256
-1.8180e-04,-2360,0.256
-1.8176e-04,-2280,0.256
-1.8172e-04,-2360,0.264
-1.8168e-04,-2360,0.256
-1.8164e-04,-2440,0.256
-1.8160e-04,-2360,0.256
-1.8156e-04,-2360,0.264
-1.8152e-04,-2360,0.264
-1.8148e-04,-2440,0.256
-1.8144e-04,-2600,0.256
-1.8140e-04,-2520,0.272
-1.8136e-04,-2440,0.264
-1.8132e-04,-2440,0.272
-1.8128e-04,-2440,0.272
-1.8124e-04,-2520,0.272
-1.8120e-04,-2520,0.272
-1.8116e-04,-2520,0.28
-1.8112e-04,-2520,0.28
-1.8108e-04,-2520,0.272
-1.8104e-04,-2600,0.28
-1.8100e-04,-2600,0.288
-1.8096e-04,-2520,0.288
-1.8092e-04,-2600,0.296
-1.8088e-04,-2520,0.296
-1.8084e-04,-2520,0.312
-1.8080e-04,-2600,0.296
-1.8076e-04,-2600,0.312
-1.8072e-04,-2600,0.312
-1.8068e-04,-2600,0.312
-1.8064e-04,-2600,0.32
-1.8060e-04,-2600,0.328
-1.8056e-04,-2600,0.328
-1.8052e-04,-2680,0.336
-1.8048e-04,-2600,0.336
-1.8044e-04,-2600,0.352
-1.8040e-04,-2600,0.352
-1.8036e-04,-2600,0.368
-1.8032e-04,-2520,0.384
-1.8028e-04,-2600,0.392
-1.8024e-04,-2600,0.408
-1.8020e-04,-2520,0.408
-1.8016e-04,-2520,0.44
-1.8012e-04,-2440,0.464
-1.8008e-04,-2360,0.488
-1.8004e-04,-2440,0.52
-1.8000e-04,-2360,0.544
-1.7996e-04,-2280,0.576
-1.7992e-04,-2280,0.608
-1.7988e-04,-2200,0.664
-1.7984e-04,-2200,0.704
-1.7980e-04,-2120,0.728
-1.7976e-04,-2040,0.768
-1.7972e-04,-1880,0.768
-1.7968e-04,-1720,0.768
-1.7964e-04,-1720,0.752
-1.7960e-04,-1560,0.728
-1.7956e-04,-1400,0.688
-1.7952e-04,-1480,0.656
-1.7948e-04,-1400,0.624
-1.7944e-04,-1320,0.592
-1.7940e-04,-1240,0.56
-1.7936e-04,-1240,0.528
-1.7932e-04,-1240,0.504
-1.7928e-04,-1160,0.472
-1.7924e-04,-1080,0.456
-1.7920e-04,-1080,0.448
-1.7916e-04,-1080,0.432
-1.7912e-04,-1080,0.408
-1.7908e-04,-1080,0.408
-1.7904e-04,-1080,0.392
-1.7900e-04,-1000,0.384
-1.7896e-04,-1080,0.376
-1.7892e-04,-1000,0.368
-1.7888e-04,-1000,0.352
-1.7884e-04,-1080,0.352
-1.7880e-04,-1000,0.344
-1.7876e-04,-1000,0.336
-1.7872e-04,-1080,0.336
-1.7868e-04,-920,0.328
-1.7864e-04,-1000,0.32
-1.7860e-04,-1080,0.32
-1.7856e-04,-1000,0.328
-1.7852e-04,-1080,0.32
-1.7848e-04,-1080,0.32
-1.7844e-04,-1000,0.312
-1.7840e-04,-1000,0.304
-1.7836e-04,-1000,0.312
-1.7832e-04,-1160,0.312
-1.7828e-04,-1080,0.312
-1.7824e-04,-1080,0.312
-1.7820e-04,-1160,0.304
-1.7816e-04,-1080,0.312
-1.7812e-04,-1080,0.304
-1.7808e-04,-1160,0.312
-1.7804e-04,-1160,0.312
-1.7800e-04,-1160,0.304
-1.7796e-04,-1160,0.304
-1.7792e-04,-1160,0.304
-1.7788e-04,-1160,0.304
-1.7784e-04,-1160,0.304
-1.7780e-04,-1160,0.304
-1.7776e-04,-1160,0.304
-1.7772e-04,-1240,0.304
-1.7768e-04,-1240,0.312
-1.7764e-04,-1240,0.312
-1.7760e-04,-1320,0.304
-1.7756e-04,-1320,0.312
-1.7752e-04,-1240,0.296
-1.7748e-04,-1240,0.304
-1.7744e-04,-1400,0.312
-1.7740e-04,-1320,0.304
-1.7736e-04,-1400,0.312
-1.7732e-04,-1400,0.304
-1.7728e-04,-1400,0.304
-1.7724e-04,-1320,0.304
-1.7720e-04,-1400,0.304
-1.7716e-04,-1400,0.304
-1.7712e-04,-1480,0.304
-1.7708e-04,-1400,0.304
-1.7704e-04,-1480,0.304
-1.7700e-04,-1480,0.304
-1.7696e-04,-1480,0.312
-1.7692e-04,-1400,0.32
-1.7688e-04,-1480,0.312
-1.7684e-04,-1480,0.304
-1.7680e-04,-1560,0.312
-1.7676e-04,-1560,0.32
-1.7672e-04,-1480,0.312
-1.7668e-04,-1560,0.32
-1.7664e-04,-1480,0.32
-1.7660e-04,-1560,0.328
-1.7656e-04,-1560,0.32
-1.7652e-04,-1560,0.32
-1.7648e-04,-1720,0.328
-1.7644e-04,-1640,0.328
-1.7640e-04,-1640,0.328
-1.7636e-04,-1640,0.328
-1.7632e-04,-1560,0.328
-1.7628e-04,-1720,0.328
-1.7624e-04,-1720,0.336
-1.7620e-04,-1800,0.336
-1.7616e-04,-1720,0.344
-1.7612e-04,-1720,0.336
-1.7608e-04,-1720,0.336
-1.7604e-04,-1720,0.352
-1.7600e-04,-1720,0.336
-1.7596e-04,-1720,0.336
-1.7592e-04,-1720,0.344
-1.7588e-04,-1800,0.344
-1.7584e-04,-1800,0.344
-1.7580e-04,-1720,0.352
-1.7576e-04,-1800,0.352
-1.7572e-04,-1800,0.36
-1.7568e-04,-1720,0.352
-1.7564e-04,-1800,0.36
-1.7560e-04,-1800,0.36
-1.7556e-04,-1720,0.368
-1.7552e-04,-1720,0.368
-1.7548e-04,-1880,0.368
-1.7544e-04,-1800,0.368
-1.7540e-04,-1800,0.376
-1.7536e-04,-1800,0.376
-1.7532e-04,-1960,0.376
-1.7528e-04,-1800,0.384
-1.7524e-04,-1640,0.392
-1.7520e-04,-1800,0.392
-1.7516e-04,-1880,0.384
-1.7512e-04,-1800,0.392
-1.7508e-04,-1720,0.408
-1.7504e-04,-1800,0.4
-1.7500e-04,-1800,0.4
-1.7496e-04,-1720,0.408
-1.7492e-04,-1880,0.408
-1.7488e-04,-1800,0.408
-1.7484e-04,-1720,0.424
-1.7480e-04,-1800,0.408
-1.7476e-04,-1880,0.408
-1.7472e-04,-1720,0.424
-1.7468e-04,-1720,0.416
-1.7464e-04,-1800,0.416
-1.7460e-04,-1720,0.424
-1.7456e-04,-1640,0.44
-1.7452e-04,-1720,0.432
-1.7448e-04,-1880,0.44
-1.7444e-04,-1720,0.432
-1.7440e-04,-1720,0.448
-1.7436e-04,-1640,0.44
-1.7432e-04,-1640,0.44
-1.7428e-04,-1640,0.456
-1.7424e-04,-1640,0.44
-1.7420e-04,-1640,0.456
-1.7416e-04,-1560,0.448
-1.7412e-04,-1640,0.448
-1.7408e-04,-1640,0.448
-1.7404e-04,-1560,0.448
-1.7400e-04,-1560,0.448
-1.7396e-04,-1560,0.456
-1.7392e-04,-1480,0.44
-1.7388e-04,-1480,0.456
-1.7384e-04,-1480,0.448
-1.7380e-04,-1480,0.448
-1.7376e-04,-1480,0.448
-1.7372e-04,-1480,0.44
-1.7368e-04,-1480,0.448
-1.7364e-04,-1560,0.44
-1.7360e-04,-1480,0.44
-1.7356e-04,-1480,0.448
-1.7352e-04,-1480,0.448
-1.7348e-04,-1480,0.448
-1.7344e-04,-1400,0.448
-1.7340e-04,-1400,0.44
-1.7336e-04,-1400,0.44
-1.7332e-04,-1560,0.432
-1.7328e-04,-1320,0.432
-1.7324e-04,-1400,0.44
-1.7320e-04,-1400,0.44
-1.7316e-04,-1400,0.432
-1.7312e-04,-1400,0.432
-1.7308e-04,-1400,0.424
-1.7304e-04,-1400,0.424
-1.7300e-04,-1400,0.432
-1.7296e-04,-1400,0.432
-1.7292e-04,-1400,0.424
-1.7288e-04,-1400,0.424
-1.7284e-04,-1400,0.424
-1.7280e-04,-1400,0.432
-1.7276e-04,-1400,0.432
-1.7272e-04,-1480,0.416
-1.7268e-04,-1400,0.432
-1.7264e-04,-1400,0.424
-1.7260e-04,-1560,0.416
-1.7256e-04,-1480,0.416
-1.7252e-04,-1400,0.416
-1.7248e-04,-1400,0.416
-1.7244e-04,-1400,0.416
-1.7240e-04,-1400,0.424
-1.7236e-04,-1400,0.416
-1.7232e-04,-1400,0.408
-1.7228e-04,-1400,0.416
-1.7224e-04,-1400,0.408
-1.7220e-04,-1400,0.416
-1.7216e-04,-1400,0.424
-1.7212e-04,-1400,0.416
-1.7208e-04,-1400,0.408
-1.7204e-04,-1400,0.416
-1.7200e-04,-1400,0.416
-1.7196e-04,-1400,0.416
-1.7192e-04,-1400,0.416
-1.7188e-04,-1400,0.416
-1.7184e-04,-1320,0.416
-1.7180e-04,-1400,0.424
-1.7176e-04,-1320,0.416
-1.7172e-04,-1400,0.416
-1.7168e-04,-1320,0.408
-1.7164e-04,-1320,0.424
-1.7160e-04,-1400,0.416
-1.7156e-04,-1400,0.416
-1.7152e-04,-1400,0.416
-1.7148e-04,-1400,0.416
-1.7144e-04,-1400,0.416
-1.7140e-04,-1400,0.424
-1.7136e-04,-1480,0.408
-1.7132e-04,-1400,0.424
-1.7128e-04,-1400,0.416
-1.7124e-04,-1400,0.408
-1.7120e-04,-1320,0.416
-1.7116e-04,-1400,0.416
-1.7112e-04,-1400,0.424
-1.7108e-04,-1480,0.416
-1.7104e-04,-1400,0.416
-1.7100e-04,-1480,0.416
-1.7096e-04,-1320,0.416
-1.7092e-04,-1400,0.408
-1.7088e-04,-1400,0.424
-1.7084e-04,-1400,0.416
-1.7080e-04,-1400,0.4
-1.7076e-04,-1480,0.392
-1.7072e-04,-1400,0.4
-1.7068e-04,-1320,0.408
-1.7064e-04,-1400,0.4
-1.7060e-04,-1400,0.392
-1.7056e-04,-1320,0.4
-1.7052e-04,-1480,0.4
-1.7048e-04,-1400,0.4
-1.7044e-04,-1400,0.4
-1.7040e-04,-1320,0.4
-1.7036e-04,-1480,0.4
-1.7032e-04,-1320,0.4
-1.7028e-04,-1400,0.392
-1.7024e-04,-1320,0.392
-1.7020e-04,-1400,0.392
-1.7016e-04,-1400,0.392
-1.7012e-04,-1320,0.384
-1.7008e-04,-1400,0.392
-1.7004e-04,-1320,0.392
-1.7000e-04,-1320,0.4
-1.6996e-04,-1400,0.392
-1.6992e-04,-1320,0.392
-1.6988e-04,-1400,0.392
-1.6984e-04,-1400,0.392
-1.6980e-04,-1320,0.392
-1.6976e-04,-1400,0.392
-1.6972e-04,-1320,0.4
-1.6968e-04,-1320,0.392
-1.6964e-04,-1400,0.384
-1.6960e-04,-1400,0.392
-1.6956e-04,-1480,0.384
-1.6952e-04,-1400,0.392
-1.6948e-04,-1400,0.384
-1.6944e-04,-1320,0.392
-1.6940e-04,-1320,0.384
-1.6936e-04,-1400,0.384
-1.6932e-04,-1400,0.384
-1.6928e-04,-1400,0.384
-1.6924e-04,-1400,0.376
-1.6920e-04,-1320,0.376
-1.6916e-04,-1320,0.376
-1.6912e-04,-1400,0.376
-1.6908e-04,-1400,0.368
-1.6904e-04,-1400,0.376
-1.6900e-04,-1400,0.376
-1.6896e-04,-1400,0.368
-1.6892e-04,-1400,0.376
-1.6888e-04,-1400,0.376
-1.6884e-04,-1320,0.368
-1.6880e-04,-1400,0.376
-1.6876e-04,-1320,0.376
-1.6872e-04,-1400,0.368
-1.6868e-04,-1400,0.368
-1.6864e-04,-1320,0.376
-1.6860e-04,-1400,0.368
-1.6856e-04,-1400,0.36
-1.6852e-04,-1400,0.352
-1.6848e-04,-1400,0.352
-1.6844e-04,-1320,0.36
-1.6840e-04,-1400,0.352
-1.6836e-04,-1400,0.352
-1.6832e-04,-1400,0.352
-1.6828e-04,-1400,0.352
-1.6824e-04,-1400,0.36
-1.6820e-04,-1400,0.352
-1.6816e-04,-1400,0.352
-1.6812e-04,-1400,0.344
-1.6808e-04,-1320,0.352
-1.6804e-04,-1400,0.344
-1.6800e-04,-1400,0.344
-1.6796e-04,-1320,0.344
-1.6792e-04,-1400,0.344
-1.6788e-04,-1400,0.344
-1.6784e-04,-1400,0.336
-1.6780e-04,-1400,0.336
-1.6776e-04,-1320,0.344
-1.6772e-04,-1320,0.344
-1.6768e-04,-1400,0.344
-1.6764e-04,-1320,0.336
-1.6760e-04,-1320,0.352
-1.6756e-04,-1400,0.352
-1.6752e-04,-1320,0.336
-1.6748e-04,-1320,0.344
-1.6744e-04,-1400,0.344
-1.6740e-04,-1320,0.344
-1.6736e-04,-1480,0.336
-1.6732e-04,-1400,0.336
-1.6728e-04,-1400,0.328
-1.6724e-04,-1320,0.336
-1.6720e-04,-1480,0.344
-1.6716e-04,-1400,0.336
-1.6712e-04,-1400,0.336
-1.6708e-04,-1400,0.336
-1.6704e-04,-1400,0.336
-1.6700e-04,-1400,0.328
-1.6696e-04,-1320,0.336
-1.6692e-04,-1400,0.328
-1.6688e-04,-1400,0.328
